<?xml version="1.0" encoding="UTF-8" standalone="no"?>
<svg
   xmlns:dc="http://purl.org/dc/elements/1.1/"
   xmlns:cc="http://creativecommons.org/ns#"
   xmlns:rdf="http://www.w3.org/1999/02/22-rdf-syntax-ns#"
   xmlns:svg="http://www.w3.org/2000/svg"
   xmlns="http://www.w3.org/2000/svg"
   xmlns:sodipodi="http://sodipodi.sourceforge.net/DTD/sodipodi-0.dtd"
   xmlns:inkscape="http://www.inkscape.org/namespaces/inkscape"
   height="16"
   width="16"
   id="svg2"
   version="1.1"
   sodipodi:docname="annot.svg"
   inkscape:version="1.0.1 (3bc2e813f5, 2020-09-07)"
   inkscape:export-filename="/home/juliette/Documents/python/tkPDFviewer/tkpdfviewerlib/images/annot.png"
   inkscape:export-xdpi="108"
   inkscape:export-ydpi="108">
  <sodipodi:namedview
     pagecolor="#ffffff"
     bordercolor="#666666"
     borderopacity="1"
     objecttolerance="10"
     gridtolerance="10"
     guidetolerance="10"
     inkscape:pageopacity="0"
     inkscape:pageshadow="2"
     inkscape:window-width="1920"
     inkscape:window-height="1027"
     id="namedview7"
     showgrid="false"
     inkscape:zoom="25.34375"
     inkscape:cx="7.9607999"
     inkscape:cy="8.9887993"
     inkscape:window-x="0"
     inkscape:window-y="27"
     inkscape:window-maximized="1"
     inkscape:current-layer="svg2"
     inkscape:document-rotation="0" />
  <metadata
     id="metadata12">
    <rdf:RDF>
      <cc:Work
         rdf:about="">
        <dc:format>image/svg+xml</dc:format>
        <dc:type
           rdf:resource="http://purl.org/dc/dcmitype/StillImage" />
        <dc:title />
      </cc:Work>
    </rdf:RDF>
  </metadata>
  <defs
     id="defs10" />
  <g
     transform="matrix(0.86700677,0,0,0.86700677,-459.89431,9.2567992)"
     id="g4"
     style="fill:#333333;fill-opacity:1">
    <path
       d="m 545.213,-10 a 0.83,0.83 0 0 0 -0.59,0.246 l -0.906,0.912 3.125,3.125 0.91,-0.906 c 0.33,-0.33 0.33,-0.85 0,-1.18 l -1.95,-1.95 A 0.83,0.83 0 0 0 545.213,-10 Z m -2.555,2.22 -8.666,8.668 v 3.119 h 3.121 l 8.665,-8.664 z M 535,1 h 1 v 1 h 1 v 1 h -2 z"
       fill="#666666"
       id="path6"
       style="fill:#333333;fill-opacity:1" />
  </g>
  <path
     style="fill:none;stroke:#333333;stroke-width:0.89264px;stroke-linecap:butt;stroke-linejoin:miter;stroke-opacity:1"
     d="M 1.9899508,2.4849595 V 14.770182 H 12.860026 l -0.0024,-9.5878325 -2.722761,-2.6911146 z"
     id="path834"
     sodipodi:nodetypes="cccccc" />
</svg>
